…
i Use `spec()` to retrieve the full column specification for this data.
i Specify the column types or set `show_col_types = FALSE` to quiet this message.
```

### Step 2: ทำการศึกษาข้อมูลในชุดนี้
```
prog_book
```
result
```
# A tibble: 271 x 7
   Rating Reviews Book_title                                                                             Description           Number_Of_Pages Type  Price
    <dbl>   <dbl> <chr>                                                                                  <chr>                           <dbl> <chr> <dbl>
 1   4.17    3829 The Elements of Style                                                                  "This style manual o~             105 Hard~  9.32
 2   4.01    1406 The Information: A History, a Theory, a Flood                                          "James Gleick, the a~             527 Hard~ 11   
 3   3.33       0 Responsive Web Design Overview For Beginners                                           "In Responsive Web D~              50 Kind~ 11.3 
 4   3.97    1658 Ghost in the Wires: My Adventures as the World's Most Wanted Hacker                    "If they were a hall~             393 Hard~ 12.9 
 5   4.06    1325 How Google Works                                                                       "Both Eric Schmidt a~             305 Kind~ 13.2 
 6   3.84     117 The Meme Machine                                                                       "What is a meme? Fir~             288 Pape~ 14.2 
 7   4.09    5938 Start with Why: How Great Leaders Inspire Everyone to Take Action                      "Why do you do what ~             256 Hard~ 14.2 
 8   4.15    1817 Algorithms to Live By: The Computer Science of Human Decisions                         "A fascinating explo~             368 Hard~ 14.4 
 9   3.87    2093 Weapons of Math Destruction: How Big Data Increases Inequality and Threatens Democracy "A former Wall Stree~             259 Hard~ 14.5 
10   4.62       0 ZX Spectrum Games Code Club: Twenty fun games to code and learn                        "This book is ideal ~             128 Pape~ 14.6 
# ... with 261 more rows
```
…
